{
  "title": "Changelog",
  "description": [
    "All notable changes to this project will be documented in this file.",
    "This project adheres to [Semantic Versioning](https://semver.org/spec/v2.0.0.html)."
  ],
  "releases": [
    {
      "version": "1.0.6",
      "date": "2020-01-10",
      "data": {
        "added": [
          "Added labels to target level/count and inventory level/count"
        ],
        "fixed": [
          "Fixed the progress showing NaN% under certain conditions"
        ]
      }
    },
    {
      "version": "1.0.5",
      "date": "2019-11-01",
      "data": {
        "changed": [
          "Changed the spinners to be easier to click on mobile"
        ]
      }
    },
    {
      "version": "1.0.4",
      "date": "2019-10-31",
      "data": {
        "changed": [
          "Changed the site navigation"
        ]
      }
    },
    {
      "version": "1.0.3",
      "date": "2019-07-25",
      "data": {
        "added": [
          "Added generic dragon tier1/tier2 support. Note that this doesn't support all the different dragon chains that exist. Instead, for the first half of the chain you choose Dragon tier 1, and then the second part of the chain you choose Dragon tier 2."
        ],
        "fixed": [
          "Fixed the target being able to be set below the start level or above the end level."
        ]
      }
    },
    {
      "version": "1.0.2",
      "date": "2019-07-24",
      "data": {
        "added": [
          "Added Haunted Houses merge chain.",
          "Added Mystic Topiaries merge chain.",
          "Added Mythical Idols merge chain.",
          "Added Monster Idols merge chain."
        ]
      }
    },
    {
      "version": "1.0.1",
      "date": "2019-06-28",
      "data": {
        "added": [
          "Added Forgotten Flowers merge chain."
        ],
        "fixed": [
          "Fixed having double quotation marks in the tab title corrupting the data."
        ]
      }
    },
    {
      "version": "1.0.0",
      "date": "2019-05-24",
      "description": "The first release",
      "data": {
        "added": [
          "Added multiple calculator support with tabs. These tabs can be dragged to be sorted, and renamed by clicking the title in the calculator.",
          "Added images to select dropdown and tabs."
        ],
        "changed": [
          "Refreshed site design with better font readability, colors, and spacing."
        ],
        "fixed": [
          "Fixed Living Stones level 3 & 4 image being swapped.",
          "Fixed Treasure Chests level 1 & 2 image being swapped.",
          "Fixed select input not extending full width.",
          "Fixed search input not showing when merchain is null."
        ],
        "breaking": [
          "The storage and share format has changed, so it won't be able to load your previous saved states. This will not happen again going forward."
        ]
      }
    }
  ]
}